{
  "pods": [
    {
      "score": 20,
      "podUrls": [
        {"host": "start.hubzilla.org"}],
      "name": "Start Hubzilla",
      "mainLangs": ["en"],
      "id": 0
    },
    {
      "score": 20,
      "podUrls": [{"host": "hub.libranet.de"}],
      "name": "libranet",
      "mainLangs": ["en"],
      "id": 0
    },
    {
      "score": 20,
      "podUrls": [{"host": "hub.disroot.org"}],
      "name": "DisHub",
      "mainLangs": ["en"],
      "id": 0
    },
    {
      "score": 20,
      "podUrls": [{"host": "hub.somaton.com"}],
      "name": "hub.somaton.com",
      "mainLangs": ["en"],
      "id": 0
    },
    {
      "score": 20,
      "podUrls": [{"host": "hub.tschlotfeldt.de"}],
      "name": "hub.tschlotfeldt.de",
      "mainLangs": ["en"],
      "id": 0
    },
    {
      "score": 20,
      "podUrls": [{"host": "gerzilla.de"}],
      "name": "gerzilla.de",
      "mainLangs": ["en"],
      "id": 0
    },
    {
      "score": 20,
      "podUrls": [{"host": "elsmussols.org"}],
      "name": "elsmussols.org",
      "mainLangs": ["en"],
      "id": 0
    },
    {
      "score": 20,
      "podUrls": [{"host": "hub.weho.st"}],
      "name": "hub.weho.st",
      "mainLangs": ["en"],
      "id": 0
    },
    {
      "score": 20,
      "podUrls": [{"host": "sparklechicken.net"}],
      "name": "Lair of the SparkleChickens",
      "mainLangs": ["en"],
      "id": 0
    },
    {
      "score": 20,
      "podUrls": [{"host": "hub.transition-regensburg.de"}],
      "name": "Transition Regensburg Portal",
      "mainLangs": ["en"],
      "id": 0
    },
    {
      "score": 20,
      "podUrls": [{"host": "kukka.uber.space"}],
      "name": "kukka.uber.space",
      "mainLangs": ["en"],
      "id": 0
    },
    {
      "score": 20,
      "podUrls": [{"host": "hubzilla.zottel.net"}],
      "name": "zottels Hubzilla-Server",
      "mainLangs": ["en"],
      "id": 0
    },
    {
      "score": 20,
      "podUrls": [{"host": "22330.fr"}],
      "name": "22330.fr",
      "mainLangs": ["fr"],
      "id": 0
    },
    {
      "score": 20,
      "podUrls": [{"host": "silverhaze.eu"}],
      "name": ". o O ( Silverhaze.EU ) O o .",
      "mainLangs": ["en"],
      "id": 0
    },
    {
      "score": 20,
      "podUrls": [{"host": "hubzilla.monte-bleibt.de"}],
      "name": "hubzilla.monte-bleibt.de",
      "mainLangs": ["en"],
      "id": 0
    },
    {
      "score": 20,
      "podUrls": [{"host": "freunde.thielen.club"}],
      "name": "Freunde im Thielen Club",
      "mainLangs": ["en"],
      "id": 0
    },
    {
      "score": 20,
      "podUrls": [{"host": "libellula.criptica.org"}],
      "name": "libellula.criptica.org",
      "mainLangs": ["en"],
      "id": 0
    },
    {
      "score": 20,
      "podUrls": [{"host": "hubzilla.a-zwenkau.de"}],
      "name": "hubzilla.a-zwenkau.de",
      "mainLangs": ["en"],
      "id": 0
    },
    {
      "score": 20,
      "podUrls": [{"host": "5py.de"}],
      "name": "5py",
      "mainLangs": ["en"],
      "id": 0
    },
    {
      "score": 20,
      "podUrls": [{"host": "zot.shorehub.com"}],
      "name": "ESVA Hub",
      "mainLangs": ["en"],
      "id": 0
    },
    {
      "score": 20,
      "podUrls": [{"host": "hub.plyuk.rocks"}],
      "name": "hub.plyuk.rocks",
      "mainLangs": ["en"],
      "id": 0
    },
    {
      "score": 20,
      "podUrls": [{"host": "dacha.xmpp.moe"}],
      "name": "dacha.xmpp.moe",
      "mainLangs": ["en"],
      "id": 0
    },
    {
      "score": 20,
      "podUrls": [{"host": "hub.ax9.eu"}],
      "name": "Dies und Das",
      "mainLangs": ["en"],
      "id": 0
    },
    {
      "score": 20,
      "podUrls": [{"host": "hubloq.net"}],
      "name": "Hubloq.Net",
      "mainLangs": ["en"],
      "id": 0
    },
    {
      "score": 20,
      "podUrls": [{"host": "nexxt.social"}],
      "name": "NEXXT.social",
      "mainLangs": ["en"],
      "id": 0
    },
    {
      "score": 20,
      "podUrls": [{"host": "deadsuperhero.com"}],
      "name": "DeadSuperHero",
      "mainLangs": ["en"],
      "id": 0
    },
    {
      "score": 20,
      "podUrls": [{"host": "rockcity.ibb.town"}],
      "name": "Ibbtown Rockcity",
      "mainLangs": ["en"],
      "id": 0
    },
    {
      "score": 20,
      "podUrls": [{"host": "grindcore.ch"}],
      "name": "grindcore.ch",
      "mainLangs": ["en"],
      "id": 0
    },
    {
      "score": 20,
      "podUrls": [{"host": "hub.xensen.net"}],
      "name": "hub.xensen.net",
      "mainLangs": ["en"],
      "id": 0
    },
    {
      "score": 20,
      "podUrls": [{"host": "hub.bodalenz.de"}],
      "name": "Bodalenz Hubzilla Instance",
      "mainLangs": ["en"],
      "id": 0
    },
    {
      "score": 20,
      "podUrls": [{"host": "cni-coop.netcni-coop.net"}],
      "name": "CNI Coop",
      "mainLangs": ["en"],
      "id": 0
    },
    {
      "score": 20,
      "podUrls": [{"host": "ussr.win"}],
      "name": "ussr.win",
      "mainLangs": ["en"],
      "id": 0
    },
    {
      "score": 20,
      "podUrls": [{"host": "hubzilla.rocks"}],
      "name": "hubzilla.rocks",
      "mainLangs": ["en"],
      "id": 0
    },
    {
      "score": 20,
      "podUrls": [{"host": "pod.ordoevangelistarum.com"}],
      "name": "Ordo Evangelistarum",
      "mainLangs": ["en"],
      "id": 0
    },
    {
      "score": 20,
      "podUrls": [{"host": "hub.redfish.ca"}],
      "name": "hub.redfish.ca",
      "mainLangs": ["en"],
      "id": 0
    },
    {
      "score": 20,
      "podUrls": [{"host": "sasiflo hubzilla federation hub"}],
      "name": "sasiflo.de",
      "mainLangs": ["en"],
      "id": 0
    },
    {
      "score": 20,
      "podUrls": [{"host": "hubzilla.inclusion.cc"}],
      "name": "Inclusion Social Hub",
      "mainLangs": ["en"],
      "id": 0
    },
    {
      "score": 20,
      "podUrls": [{"host": "hubz.secretlair.me"}],
      "name": "SecretLair - Hubzilla",
      "mainLangs": ["en"],
      "id": 0
    },
    {
      "score": 20,
      "podUrls": [{"host": "hubzilla.it"}],
      "name": "hubzilla.it",
      "mainLangs": ["en"],
      "id": 0
    },
    {
      "score": 20,
      "podUrls": [{"host": "hubzilla.nomadicista.org"}],
      "name": "hubzilla.nomadicista.org",
      "mainLangs": ["en"],
      "id": 0
    },
    {
      "score": 20,
      "podUrls": [{"host": "herkenhoff.eu"}],
      "name": "herkenhoff.eu",
      "mainLangs": ["en"],
      "id": 0
    },
    {
      "score": 20,
      "podUrls": [{"host": "albigro.com"}],
      "name": "albigro.com",
      "mainLangs": ["en"],
      "id": 0
    },
    {
      "score": 20,
      "podUrls": [{"host": "hub.safebook.space"}],
      "name": "hub.safebook.space",
      "mainLangs": ["en"],
      "id": 0
    },
    {
      "score": 20,
      "podUrls": [{"host": "mint-n-er.de"}],
      "name": "MINT-N-ER Hubzilla",
      "mainLangs": ["en"],
      "id": 0
    },
    {
      "score": 20,
      "podUrls": [{"host": "hub.wuewuewue.de"}],
      "name": "WÜWÜWÜ-Hubzilla",
      "mainLangs": ["en"],
      "id": 0
    },
    {
      "score": 20,
      "podUrls": [{"host": "littlefluffycloud.net"}],
      "name": "Little Fluffy Cloud",
      "mainLangs": ["en"],
      "id": 0
    },
    {
      "score": 20,
      "podUrls": [{"host": "hub.reticu.li"}],
      "name": "Hub Reticuli",
      "mainLangs": ["en"],
      "id": 0
    },
    {
      "score": 20,
      "podUrls": [{"host": "pod.datamol.org"}],
      "name": "Datamol",
      "mainLangs": ["en"],
      "id": 0
    },
    {
      "score": 20,
      "podUrls": [{"host": "hub.volse.no"}],
      "name": "Volse Hubzilla",
      "mainLangs": ["en"],
      "id": 0
    },
    {
      "score": 20,
      "podUrls": [{"host": "oliverhartmann.net"}],
      "name": "# Hubzilla #",
      "mainLangs": ["en"],
      "id": 0
    },
    {
      "score": 20,
      "podUrls": [{"host": "hub.free-society.club"}],
      "name": "Free Society Network",
      "mainLangs": ["en"],
      "id": 0
    },
    {
      "score": 20,
      "podUrls": [{"host": "tiksi.net"}],
      "name": "tiksi@net",
      "mainLangs": ["en"],
      "id": 0
    },
    {
      "score": 20,
      "podUrls": [{"host": "hubzilla.social.my-wan.de"}],
      "name": "hubzilla.social.my-wan.de",
      "mainLangs": ["en"],
      "id": 0
    },
    {
      "score": 20,
      "podUrls": [{"host": "hub.heraut.eu"}],
      "name": "hub.heraut.eu",
      "mainLangs": ["en"],
      "id": 0
    },
    {
      "score": 20,
      "podUrls": [{"host": "peacepharm.org"}],
      "name": "Peacepharm",
      "mainLangs": ["en"],
      "id": 0
    },
    {
      "score": 20,
      "podUrls": [{"host": "hubzilla.eu"}],
      "name": "hubzilla.eu",
      "mainLangs": ["en"],
      "id": 0
    },
    {
      "score": 20,
      "podUrls": [{"host": "node.hfrc.de"}],
      "name": "HFRC - My Personal Fediverse Node",
      "mainLangs": ["en"],
      "id": 0
    },
    {
      "score": 20,
      "podUrls": [{"host": "hub.ptah-alexs.info"}],
      "name": "hub.ptah-alexs.info",
      "mainLangs": ["en"],
      "id": 0
    },
    {
      "score": 20,
      "podUrls": [{"host": "darkriver.net"}],
      "name": "darkriver.net",
      "mainLangs": ["en"],
      "id": 0
    },
    {
      "score": 20,
      "podUrls": [{"host": "social.stephanmaus.de"}],
      "name": "social.stephanmaus.de",
      "mainLangs": ["en"],
      "id": 0
    },
    {
      "score": 20,
      "podUrls": [{"host": "social.pieter.ninja"}],
      "name": "social.pieter.ninja",
      "mainLangs": ["en"],
      "id": 0
    },
    {
      "score": 20,
      "podUrls": [{"host": "social.codigoparallevar.com"}],
      "name": "social.codigoparallevar.com",
      "mainLangs": ["en"],
      "id": 0
    },
    {
      "score": 20,
      "podUrls": [{"host": "www.moonskin.org"}],
      "name": "www.moonskin.org",
      "mainLangs": ["en"],
      "id": 0
    },
    {
      "score": 20,
      "podUrls": [{"host": "dezilla.de"}],
      "name": "dezilla.de",
      "mainLangs": ["en"],
      "id": 0
    },
    {
      "score": 20,
      "podUrls": [{"host": "nels.space"}],
      "name": "nels.space",
      "mainLangs": ["en"],
      "id": 0
    },
    {
      "score": 20,
      "podUrls": [{"host": "hubzilla.sysadmindork.com"}],
      "name": "hubzilla.sysadmindork.com",
      "mainLangs": ["en"],
      "id": 0
    },
    {
      "score": 20,
      "podUrls": [{"host": "vingback.se"}],
      "name": "vingback.se",
      "mainLangs": ["en"],
      "id": 0
    },
    {
      "score": 20,
      "podUrls": [{"host": "hz.oavb.eu"}],
      "name": "HZ-OAVB",
      "mainLangs": ["en"],
      "id": 0
    },
    {
      "score": 20,
      "podUrls": [{"host": "social.keazilla.net"}],
      "name": "Keazilla",
      "mainLangs": ["en"],
      "id": 0
    },
    {
      "score": 20,
      "podUrls": [{"host": "teamhubzilla.org"}],
      "name": "Team HubzillaTeam Hubzilla",
      "mainLangs": ["en"],
      "id": 0
    },
    {
      "score": 20,
      "podUrls": [{"host": "rotenburger-netz.de"}],
      "name": "rotenburger-netz.de",
      "mainLangs": ["en"],
      "id": 0
    },
    {
      "score": 20,
      "podUrls": [{"host": "social.azkware.net"}],
      "name": "social.azkware.net",
      "mainLangs": ["en"],
      "id": 0
    },
    {
      "score": 20,
      "podUrls": [{"host": "hub.togart.de"}],
      "name": "hub.togart.de",
      "mainLangs": ["en"],
      "id": 0
    },
    {
      "score": 20,
      "podUrls": [{"host": "mercury.spraci.info"}],
      "name": "SPRACIHUB",
      "mainLangs": ["en"],
      "id": 0
    },
    {
      "score": 20,
      "podUrls": [{"host": "hubzilla.konzurovski.net"}],
      "name": "hubzilla.konzurovski.net",
      "mainLangs": ["en"],
      "id": 0
    },
    {
      "score": 20,
      "podUrls": [{"host": "hubzilla.place.org"}],
      "name": "hubzilla.place.org",
      "mainLangs": ["en"],
      "id": 0
    },
    {
      "score": 20,
      "podUrls": [{"host": "piratenpartij.org"}],
      "name": "Piratenpartij Hubzilla",
      "mainLangs": ["nl"],
      "id": 0
    },
    {
      "score": 20,
      "podUrls": [{"host": "eckel.club"}],
      "name": "Eckel Club",
      "mainLangs": ["en"],
      "id": 0
    },
    {
      "score": 20,
      "podUrls": [{"host": "pixelbits.de"}],
      "name": "pixelbits.de",
      "mainLangs": ["de"],
      "id": 0
    },
    {
      "score": 20,
      "podUrls": [{"host": "ibb.info"}],
      "name": "ibb.info",
      "mainLangs": ["de"],
      "id": 0
    },
    {
      "score": 20,
      "podUrls": [{"host": "hub.benkard.de"}],
      "name": "Benkard Hub",
      "mainLangs": ["en"],
      "id": 0
    },
    {
      "score": 20,
      "podUrls": [{"host": "hub.waytt.ml"}],
      "name": "hub.waytt.ml",
      "mainLangs": ["uk"],
      "id": 0
    },
    {
      "score": 20,
      "podUrls": [{"host": "huhub.nunki.uberspace.de"}],
      "name": "HuHub",
      "mainLangs": ["de"],
      "id": 0
    },
    {
      "score": 20,
      "podUrls": [{"host": "hub.berdaguermontes.eu"}],
      "name": "hub.berdaguermontes.eu",
      "mainLangs": ["en"],
      "id": 0
    },
    {
      "score": 20,
      "podUrls": [{"host": "hub18.talkplus.org"}],
      "name": "hub18 Talkplus",
      "mainLangs": ["en"],
      "id": 0
    },
    {
      "score": 20,
      "podUrls": [{"host": "hub.kosmospora.de"}],
      "name": "hub.kosmospora.de",
      "mainLangs": ["de"],
      "id": 0
    },
    {
      "score": 20,
      "podUrls": [{"host": "louma.ml"}],
      "name": "[ˈlouma]",
      "mainLangs": ["de"],
      "id": 0
    },
    {
      "score": 20,
      "podUrls": [{"host": "hub.damaron.net"}],
      "name": "hub.damaron.net",
      "mainLangs": ["de"],
      "id": 0
    },
    {
      "score": 20,
      "podUrls": [{"host": "hub.pztrn.name"}],
      "name": "pztrn's Hub",
      "mainLangs": ["de"],
      "id": 0
    },
    {
      "score": 20,
      "podUrls": [{"host": "hubzilla.link"}],
      "name": "hubzilla.link",
      "mainLangs": ["ru"],
      "id": 0
    }
],
  "timestamp": 1502656297127
}
